10008051
10016432
10019334
10027517
10032456
10034164
10039226
10045
10066
10070
10073257
10074048
101261
101350
10252
10276679
10279794
10290265
10310562
10313229
10322399
10330630
10401646
10404539
10419384
10419648
10423929
10425739
10462
10475417
10521304
10524053
10534193
10542250
10564118
10576004
105847883
10609599
10649973
10737694
10739107
10761212
10779724
10780977
10783499
10824
10842035
1088
10883844
10912
10928007
10938134
10941284
10952404
10960605
10991171
11000276
11050768
11065419
11109295
11117
11142691
11153800
11156150
11160761
11162094
11182
11203443
11226972
1127
11298829
11307639
11354945
11361015
11372864
11379
11419528
1142
11466725
11493458
11515597
11537087
11610797
11627445
11632134
1165
11663931
11673022
11691880
11702454
11703554
11721331
11743172
11750714
11751699
11760007
11805998
11807
11814810
11817817
11825997
11834949
11852221
11955645
11972
120682
12074665
12075
12104235
12143760
12159636
12191962
12202780
12218377
1226
1227
122703
12275415
12307729
12336827
12384531
124162
12489570
12493248
12535632
12539
12549697
12559527
12590830
1260015
12603
12620700
12631911
12666384
12677510
12687852
12713
12752080
1276740
12925457
1292559
12999108
13001
13007562
13066443
13073524
130913
13124222
13153910
13155973
13159881
13264
13335376
13337190
1334
13340180
13366159
13378441
13389345
13390098
13393617
13393876
13402660
13407509
1342853
1344792
13453037
1345820
13459176
13465629
1346788
1348749
13489796
1350219
1350237
1350393
13515500
13525648
1353232
13556159
13582966
1360482
1361275
1361727
13631210
1366021
1366147
1367535
13685290
13708387
1371250
13721
13723638
13731139
13738859
13739317
13748326
13773
1380818
1386
13860
138791
1391150
1397723
13990
1405276
14062055
14081542
14085915
14098
14153498
1417117
14252573
1426229
14274343
14285923
14317844
1432107
14351968
14364
14394600
14395841
1447085
14477484
1448810
14511977
14551517
14579966
14625808
14670187
14679021
14773650
14807988
14810665
14819160
14845269
1486
14873478
14877
1487862
14897549
15001315
15015092
15022227
15025
15034773
15043600
15043611
15059440
15084846
15085427
15086786
15157
15202890
15235623
15243417
15268935
1528221
152908
15330971
1543447
15434878
1545591
15470981
1552
1554
15627045
15672218
15704905
15717
15789572
15852243
15854466
15870
15872
15889688
159
15985
15985174
16121654
16174666
16196175
1623787
16273814
16286325
16351512
16356
163875
16401190
16472186
16575013
1667773
16682397
16728178
16732980
16733044
16824573
16827100
16827424
1691
16922941
1692866
16948
16986497
17022
17059197
17099760
1717
1720367
17219
17296591
173074
17329677
17406700
17410794
17428269
17454965
17463432
174642
17505757
17528709
17534932
17640015
1764128
17644553
17645532
17649286
17665044
17694
177326
17764414
17780511
17862813
17878986
17892476
17902063
17911207
179381
17947867
17985121
1799
17991525
17999809
1800776
18022219
18024724
1803672
18038707
18046960
18060391
18081342
181023
18106377
18119
18137738
181526
18155280
18162315
18193516
18193521
18218629
1823
18343968
183862
1842
18433027
18505010
18513453
18561033
18575227
18581779
18584
18617258
18626606
18637516
18651
18656937
18664
18677284
18703883
1884014
18870402
18914789
19002562
19013987
19098044
1912872
19181
19185425
19189656
19195254
1920
19208527
19224064
19246
19322620
1933719
19342362
19343057
19343319
19388130
19389925
19424161
19428
19466424
19509210
19550
19569463
19571545
1958
1958216
19600
19606058
19611001
19624216
1965
19660280
19660635
19699476
1971950
19784448
19810
19860558
19880924
1989677
19911836
1992097
1993558
19958820
1999638
20028245
20028902
20047
20052
20078281
20088
20096
20096264
20138487
20170979
202383
202391
20261752
20281355
202860
20315
20337473
20352390
20360454
20369207
20442851
2045
204887
20508004
20520791
20543557
20558250
20562
20583420
20614901
20636249
20659816
20724
20786
20796
20810216
20814423
208214
20839830
20842462
20849129
20861785
20891188
20906180
20931
20931597
21039143
21058198
21058404
21078264
21114423
21119235
21158594
21164391
21187
21218181
21225578
21235447
21237011
21257179
21264970
21322959
21426700
21483441
21496
21533496
21546927
21552231
21597
21603
21619236
21624052
21639431
21685164
21721
21776765
2184
2185
21896902
21915233
2196933
21976654
21978939
21984433
21992444
22041811
22042136
22042812
22043279
22044218
22045790
22046956
22050458
22051329
22054258
22057431
22057489
22059236
22063582
22065124
22065389
22069563
22073318
22078780
22079330
22081510
22087354
22091370
22100213
22103199
221079
22205189
22247417
22316126
22329411
2241543
2243349
2246212
22517419
2252965
2254383
2254769
2257240
2257496
2265342
22662382
226771
22678742
2281
228424
2287254
22920
22958841
23011778
23041755
23052
23144
2315573
23203
23394286
2342674
23529458
23599187
2363758
23725660
237554
23879
23969983
2398573
23995
24031769
24038818
2409476
2412714
24129827
24135534
24150
24156024
24158194
24168742
24187288
24203553
24251958
24281156
24289870
24293
24413203
2441523
24444
24539051
24557393
2459758
24667882
2470321
24825629
24836573
24843137
24888
24915793
24926207
24939125
24940878
24973
25048194
25056594
25097313
25191240
252
25292
25365624
2539527
2546020
25550132
2565356
25699949
25725
25791918
25813263
25813828
25820906
25866203
25867494
25875062
25896088
25997
2602
26047131
26051663
2607518
26085503
26106017
26108963
26113659
26156986
26166110
26183400
2620049
26221347
26245476
26247985
26272620
2635
26373298
2640548
26511268
26535
2658869
26591
27013334
27110112
27115046
27122851
27165
27252
27261269
27321561
2733097
27396528
27397799
27399930
27408888
2746
27561857
27564
27603
27615925
27629
27645535
27660459
27666765
27673703
27712743
2777026
27859042
27903
28008
28032966
28054298
28063133
28112199
2812
28127161
28136830
28139242
28141715
28150982
28160
2822
2831
28321706
28325641
28327701
28336451
284
28420571
28547613
28555377
28557277
28584132
28590096
28602846
28614494
28698404
28740249
28798893
28824
28852079
28860279
28866317
28866352
28904919
2892743
28947096
28947324
28947766
28958762
28992409
29030961
29067220
29109540
29128136
29128988
29129847
29138885
2914062
29146763
2916055
29164612
29167693
29170758
29181116
29210215
29219043
2924028
29253
2925968
29261651
29262032
29262738
29263543
29263580
29263609
29304481
29355231
2939782
29462
29491043
29548
29629
29655051
29662323
29671
29696571
29698546
29699612
29750680
29766693
29790
29811683
29831135
2988811
29929760
2995252
29985689
29986857
300140
3005855
30215691
3023009
30238888
30268138
30387321
30402
3040416
3040752
30459249
30464
30500617
30509123
30513547
3064897
30750082
30777963
30778135
3079553
30839384
3085
3086778
30893902
30924385
30929002
30950478
30982142
30994287
30995323
31009518
31100678
31118150
31125816
31152806
31177317
312
31232349
3127830
3133410
31340100
3137
31375855
31441482
3149844
31500434
31531793
31569007
31684
31723
3174
31749318
31810056
31843915
31851528
31904752
31923042
31931263
31932963
31942938
31947030
31986792
31990776
32030755
32076440
3207718
32114780
3213204
3214055
3216686
321869
32199270
32266675
32274721
32285135
32288742
32306288
3235795
323615
32379769
32408800
32420676
32449
3245727
3246
32529814
32533130
32558924
32602099
32641897
3264228
32670649
3275
32755
3281281
32902832
3290625
3296255
3300396
33035069
33067869
33094170
33102137
33135287
3314898
33170
33173036
33180805
3318537
33215041
33258902
33324603
33447102
33456486
33513269
33523
3353349
33590143
3360645
33609384
3377196
3377587
33880737
33892359
33899243
3391191
33933907
33961690
33967540
33972766
33982207
33993744
340
34014717
340521
3406875
3407
34084312
3410497
3416802
34169783
3416985
3419130
34224210
3424853
34324911
3432779
34328159
34341942
34369870
3439744
34452887
34453519
3446487
34484500
3452
34558716
34579413
34586356
3459504
34618833
3468479
3475793
34805842
3486
3487748
34896252
34911337
34957
3497246
34978871
35082277
35111472
35115715
35213471
35339700
35381642
35383186
35406365
35416635
35418442
3543959
35458888
35606
35617368
3562231
35818900
35818923
35819264
35846
35892970
35897281
35917675
3596605
3603199
3611689
36256683
36279210
36285828
3630585
363270
3634128
36389199
3648248
36507912
36550471
36600100
36614902
36641211
36666006
367
3671423
36737981
36749083
36768
3682
36909097
36928489
3697
37
37108388
37111629
37117929
37152407
3717757
37206984
37218470
3723139
37240579
37257389
37297429
37299867
37317316
37326766
37366212
3743103
37495078
37496617
37500561
3750617
37548
37561753
37598325
37675066
37683270
37703551
37759947
3777
37772
37843
3786960
37917101
3798450
38006023
38091986
38130539
38230326
38234894
38236519
3829786
38318938
3832678
383699
38397
38419186
3844721
3849206
38505053
38520832
3871375
38717234
3879861
38829050
38830614
38843634
38875632
38922796
38991627
39021
3905191
39054353
39075
39095969
39122684
39143175
39179781
392
3923
39263901
3928853
3929
3929178
3936890
39370
3940752
3950732
39627904
3963753
3963956
39679161
397037
39765609
3981
39934058
40066490
40088935
40092167
40147600
40238959
4030126
4037501
40378956
404631
40536963
40644
4068
40697150
4074040
40782387
40842
40899787
40931583
4095326
40964011
40972
4114
41192
4135
41422562
41709518
41758019
41759301
41792041
41833333
41884441
41971
4201647
42040407
4205403
42081035
42116935
4217513
42227
4230805
4232585
424371
42568883
42594691
42627465
4270376
42748002
42798846
4282463
42952
43054
43061
43113
4314311
43256
43277183
43333411
434
4341333
43620776
43637674
43707723
4371013
43770996
43786903
43788254
43847013
43875
4393
4397024
4397047
43972
44287664
44309156
44310621
44412057
44430140
44497484
44513793
4455600
44561402
4456243
44608491
44611463
4462320
44634110
44639
44686
4469056
44760076
4482398
44931891
44967
450893
4524570
45252240
45284088
45297
45316
45400748
4563494
45658
4567
45717
45786706
45945255
4594792
46101714
4612
4612733
46220473
46250140
46382147
46403735
4641
46454746
46570587
46793075
4708601
47114546
4711649
4720787
4743988
4747
47508018
4751
47537479
476011
4765
47702
4796618
4804053
48074943
48190
48219054
4832861
4834134
4834743
4836101
48462
4850394
4866
4869439
48723598
4873
4876188
49032
4925076
49473754
4952344
49540399
49555
49575403
4974603
4985815
500132
5006
5028330
5042636
5056944
5064429
507142
50741209
50884945
51006961
5124
5128
51387933
5157401
51640975
51661789
51766560
51958423
51989215
5203805
5215147
5216326
5219
5226887
52297059
524804
52672247
528
5282855
52934
5308
5329342
5331696
53338712
53458215
5348554
53564232
53732707
5377011
5389187
53938
540
54076
54282526
5442848
5455
5455827
5457056
546037
5472724
5482310
5494189
55068
5508797
55146401
5516
5520
55219
5524547
55275
5541827
5541837
5546474
55478598
5562
55664673
5573316
5580485
56000796
5603
56031945
5613772
56341
5643884
5684037
5756610
5768596
57786306
5805826
581
5831
5831963
58345
5854
58572
58663
58704
595203
59672089
6
6013
6017830
6026
60488339
60622
6075127
6084472
6093
6103078
6111636
61456975
6148131
6160016
61601666
6177643
6189264
6191845
619781
619792
6198
6217
62238
62379381
6251327
62688
6278588
62925165
63
6310287
634
6359
6368
6382221
6415918
64196
6420548
6421472
6422123
6423374
64299233
64509774
64595669
64689
6490330
6496393
64996752
6542435
6544729
6622677
6633361
6636898
66438665
66608
6681796
6699387
6705344
67060
6715060
67281
6758979
6761827
6783249
67874
680826
6824363
6826230
6830
68393671
6843683
6864
6876142
691908
69206
6940587
6946390
6965976
69663
6970323
7021841
7026003
7045206
70703
707160
71
7115486
71334
71447
7150069
715389
7157116
71669
7176443
71812389
7184305
7197777
7221
724539
7250321
7269260
7289481
7292977
7294393
7295625
7301975
7332776
7344462
736347
7372037
7402
7414525
74184
7449876
7452331
74717642
7471896
7474721
750
7512796
7537
7560
7566483
7593408
7625087
7633639
7638462
76457192
7655968
7674682
7676993
7688161
7701652
7704341
7728849
7735464
7740
7744539
7767693
77818
78152
782760
788
78870
78942
790408
79048
7917616
7921108
7941722
7943987
7975648
7976200
799
807
8080805
8086055
809314
8127
8149324
8157227
8167306
8196280
8204377
8234517
8246028
8255972
8282646
8286083
8292833
8302129
8304
83157
8325197
833179
8335053
83463
8407619
84149
84597
8464919
847
8497861
8504763
8505
853
8530417
854407
860
86023
8613554
861430
8635027
864
86526
866419
8691751
86988
8700
8776197
8782034
8793117
8797396
8837904
8880
8885398
8886426
8919453
8935047
89364
8952646
8966588
8992
900
901621
9033666
9068059
9094098
9162776
9167525
9204
9236220
9238699
9264012
9286541
9302037
9316
9341253
9365581
9402294
9407604
9422
942601
9427
9488920
9509304
9509377
9510870
9522538
9527814
9564464
961
9626183
9626217
9630652
9666448
9678863
9690337
9697825
9698210
9706049
9712200
9723084
9723562
9755022
9789111
9793
979882
979987
9801225
9801970
9801971
9805335
9820092
9820344
9833946
9859646
9884164
9891322
9907917
9914100
995742
9985349
9987254
