issue_comments,commit_comments,issues,watchers,closePR,commits,committers,openPR,month
2,0,1,1,2,2,1,1,2019-1
2,0,1,1,2,2,1,1,2019-2
2,0,1,1,2,2,1,1,2019-3
3,0,1,1,2,2,1,1,2019-4
3,0,1,1,2,2,1,1,2019-5
3,0,1,1,2,2,1,1,2019-6
3,0,1,1,2,2,1,1,2019-7
3,0,1,1,2,2,1,1,2019-8
3,0,1,1,2,2,1,1,2019-9
3,0,1,1,2,2,1,1,2019-10
3,0,1,1,2,2,1,1,2019-11
3,0,1,1,2,2,1,1,2019-12
