issue_comments,commit_comments,issues,watchers,closePR,commits,committers,openPR,month
1,0,0,2,0,0,0,0,2019-1
1,0,0,2,0,0,0,0,2019-2
1,0,0,2,0,0,0,0,2019-3
1,0,0,2,0,0,0,0,2019-4
1,0,0,2,0,0,0,0,2019-5
0,0,0,2,0,0,0,0,2019-6
0,0,0,2,0,0,0,0,2019-7
0,0,0,2,0,0,0,0,2019-8
0,0,0,2,0,0,0,0,2019-9
0,0,0,2,0,0,0,0,2019-10
0,0,0,2,0,0,0,0,2019-11
0,0,0,2,0,0,0,0,2019-12
