issue_comments,commit_comments,issues,watchers,closePR,commits,committers,openPR,month
5,0,1,1,0,1,1,1,2019-1
4,0,1,1,0,1,1,1,2019-2
5,0,1,1,0,1,1,1,2019-3
5,0,1,1,0,1,1,1,2019-4
5,0,1,1,0,1,1,1,2019-5
5,0,1,1,1,1,1,1,2019-6
5,0,1,1,1,1,1,1,2019-7
6,0,1,1,1,1,1,1,2019-8
6,0,1,1,1,1,1,1,2019-9
6,0,1,1,1,1,1,1,2019-10
6,0,1,1,1,1,1,1,2019-11
7,0,1,1,1,1,1,1,2019-12
