issue_comments,commit_comments,issues,watchers,closePR,commits,committers,openPR,month
7,0,1,3,0,5,1,0,2019-1
7,0,1,3,0,5,1,0,2019-2
7,0,1,2,0,5,1,0,2019-3
8,0,1,3,0,5,1,0,2019-4
8,0,1,2,0,5,1,0,2019-5
8,0,1,2,0,5,1,0,2019-6
9,0,1,2,0,5,1,0,2019-7
9,0,1,2,0,5,1,0,2019-8
10,0,1,2,0,6,1,0,2019-9
10,0,1,2,0,6,1,0,2019-10
11,0,1,2,0,6,1,0,2019-11
11,0,1,2,0,6,1,0,2019-12
