issue_comments,commit_comments,issues,watchers,closePR,commits,committers,openPR,month
10,0,6,15,4,7,2,6,2019-1
8,0,5,16,3,5,2,5,2019-2
5,0,5,17,3,3,1,5,2019-3
4,0,5,19,3,3,1,5,2019-4
2,0,5,20,2,1,0,5,2019-5
0,0,5,21,2,0,0,5,2019-6
0,0,5,23,2,0,0,5,2019-7
0,0,5,24,1,0,0,4,2019-8
0,0,4,25,1,0,0,4,2019-9
0,0,5,27,1,0,0,4,2019-10
0,0,4,28,0,0,0,4,2019-11
0,0,4,29,0,0,0,4,2019-12
