issue_comments,commit_comments,issues,watchers,closePR,commits,committers,openPR,month
1,0,0,3,0,0,0,0,2019-1
1,0,0,3,0,0,0,0,2019-2
1,0,0,2,0,0,0,0,2019-3
1,0,0,3,0,0,0,0,2019-4
1,0,0,3,0,0,0,0,2019-5
1,0,0,2,0,0,0,0,2019-6
1,0,0,3,0,0,0,0,2019-7
1,0,0,3,0,0,0,0,2019-8
1,0,0,2,0,0,0,0,2019-9
1,0,0,3,0,0,0,0,2019-10
1,0,0,2,0,0,0,0,2019-11
1,0,0,2,0,0,0,0,2019-12
