issue_comments,commit_comments,issues,watchers,closePR,commits,committers,openPR,month
5,0,2,2,2,3,1,2,2019-1
4,0,2,2,2,3,1,2,2019-2
4,0,2,2,2,3,1,2,2019-3
5,0,2,2,2,3,1,2,2019-4
5,0,2,2,2,3,1,2,2019-5
4,0,2,2,2,3,1,2,2019-6
5,0,2,2,2,3,1,2,2019-7
4,0,2,2,2,3,1,2,2019-8
4,0,2,2,2,2,1,2,2019-9
5,0,2,2,2,3,1,2,2019-10
4,0,2,2,2,2,1,2,2019-11
4,0,2,2,2,2,1,2,2019-12
