issue_comments,commit_comments,issues,watchers,closePR,commits,committers,openPR,month
1,0,0,0,0,1,0,0,2019-1
1,0,0,0,0,1,0,0,2019-2
1,0,0,0,0,1,0,0,2019-3
2,0,0,0,0,1,0,0,2019-4
2,0,0,0,0,1,0,0,2019-5
1,0,0,0,0,1,0,0,2019-6
2,0,0,0,0,1,0,0,2019-7
2,0,0,0,0,1,0,0,2019-8
2,0,0,0,0,1,0,0,2019-9
2,0,0,0,0,1,0,0,2019-10
2,0,0,0,0,1,0,0,2019-11
2,0,0,0,0,1,0,0,2019-12
